[gd_scene load_steps=4 format=2]

[ext_resource path="res://Resources/Models/Rocks/color1.material" type="Material" id=1]
[ext_resource path="res://Scripts/Object.gd" type="Script" id=2]

[sub_resource type="ArrayMesh" id=1]
surfaces/0 = {
"aabb": AABB( -1.4371, -0.732441, -1.00294, 2.86995, 1.71736, 1.05511 ),
"array_data": PoolByteArray( 22, 8, 224, 190, 37, 60, 89, 62, 127, 232, 241, 59, 0, 0, 127, 0, 127, 0, 0, 129, 27, 51, 236, 57, 98, 216, 145, 191, 239, 245, 175, 190, 0, 233, 241, 59, 0, 0, 127, 0, 127, 0, 0, 129, 27, 51, 236, 57, 111, 197, 124, 190, 174, 86, 255, 190, 0, 233, 241, 59, 0, 0, 127, 0, 127, 0, 0, 129, 27, 51, 236, 57, 212, 242, 183, 191, 218, 76, 175, 62, 127, 232, 241, 59, 0, 0, 127, 0, 127, 0, 0, 129, 27, 51, 236, 57, 217, 159, 98, 63, 62, 253, 105, 62, 127, 232, 241, 59, 0, 0, 127, 0, 127, 0, 0, 129, 27, 51, 236, 57, 239, 27, 187, 62, 151, 162, 76, 63, 127, 232, 241, 59, 0, 0, 127, 0, 127, 0, 0, 129, 27, 51, 236, 57, 36, 12, 93, 63, 97, 143, 188, 190, 0, 233, 241, 59, 0, 0, 127, 0, 127, 0, 0, 129, 27, 51, 236, 57, 36, 12, 93, 63, 97, 143, 188, 190, 0, 233, 241, 59, 14, 130, 0, 0, 127, 0, 0, 127, 27, 51, 236, 57, 111, 197, 124, 190, 174, 86, 255, 190, 0, 233, 241, 59, 14, 130, 0, 0, 127, 0, 0, 127, 27, 51, 236, 57, 111, 197, 124, 190, 174, 86, 255, 190, 7, 51, 148, 190, 14, 130, 0, 0, 127, 0, 0, 127, 27, 51, 236, 57, 36, 12, 93, 63, 97, 143, 188, 190, 7, 51, 148, 190, 14, 130, 0, 0, 127, 0, 0, 127, 27, 51, 236, 57, 217, 159, 98, 63, 62, 253, 105, 62, 127, 232, 241, 59, 126, 252, 0, 0, 127, 0, 0, 127, 27, 51, 236, 57, 36, 12, 93, 63, 97, 143, 188, 190, 0, 233, 241, 59, 126, 252, 0, 0, 127, 0, 0, 127, 27, 51, 236, 57, 36, 12, 93, 63, 97, 143, 188, 190, 7, 51, 148, 190, 126, 252, 0, 0, 127, 0, 0, 127, 27, 51, 236, 57, 217, 159, 98, 63, 62, 253, 105, 62, 10, 51, 148, 190, 126, 252, 0, 0, 127, 0, 0, 127, 27, 51, 236, 57, 111, 197, 124, 190, 174, 86, 255, 190, 0, 233, 241, 59, 235, 131, 0, 0, 127, 0, 0, 127, 27, 51, 236, 57, 98, 216, 145, 191, 239, 245, 175, 190, 0, 233, 241, 59, 235, 131, 0, 0, 127, 0, 0, 127, 27, 51, 236, 57, 98, 216, 145, 191, 239, 245, 175, 190, 7, 51, 148, 190, 235, 131, 0, 0, 127, 0, 0, 127, 27, 51, 236, 57, 111, 197, 124, 190, 174, 86, 255, 190, 7, 51, 148, 190, 235, 131, 0, 0, 127, 0, 0, 127, 27, 51, 236, 57, 239, 27, 187, 62, 151, 162, 76, 63, 127, 232, 241, 59, 93, 85, 0, 0, 127, 0, 0, 127, 27, 51, 236, 57, 217, 159, 98, 63, 62, 253, 105, 62, 127, 232, 241, 59, 93, 85, 0, 0, 127, 0, 0, 127, 27, 51, 236, 57, 217, 159, 98, 63, 62, 253, 105, 62, 10, 51, 148, 190, 93, 85, 0, 0, 127, 0, 0, 127, 27, 51, 236, 57, 239, 27, 187, 62, 151, 162, 76, 63, 10, 51, 148, 190, 93, 85, 0, 0, 127, 0, 0, 127, 27, 51, 236, 57, 98, 216, 145, 191, 239, 245, 175, 190, 0, 233, 241, 59, 140, 206, 0, 0, 127, 0, 0, 127, 27, 51, 236, 57, 212, 242, 183, 191, 218, 76, 175, 62, 127, 232, 241, 59, 140, 206, 0, 0, 127, 0, 0, 127, 27, 51, 236, 57, 212, 242, 183, 191, 218, 76, 175, 62, 10, 51, 148, 190, 140, 206, 0, 0, 127, 0, 0, 127, 27, 51, 236, 57, 98, 216, 145, 191, 239, 245, 175, 190, 7, 51, 148, 190, 140, 206, 0, 0, 127, 0, 0, 127, 27, 51, 236, 57, 22, 8, 224, 190, 94, 70, 114, 61, 143, 68, 141, 189, 254, 24, 124, 0, 131, 20, 250, 127, 209, 57, 51, 58, 100, 35, 130, 191, 181, 120, 247, 61, 247, 185, 186, 189, 254, 24, 124, 0, 130, 13, 252, 127, 210, 57, 51, 58, 201, 203, 142, 191, 153, 143, 189, 190, 254, 223, 71, 59, 254, 24, 124, 0, 138, 44, 246, 127, 210, 57, 50, 58, 152, 134, 133, 191, 72, 173, 211, 190, 254, 9, 81, 60, 254, 24, 124, 0, 148, 64, 242, 127, 209, 57, 50, 58, 22, 8, 224, 190, 240, 119, 30, 189, 68, 120, 34, 191, 0, 235, 131, 0, 223, 120, 236, 127, 244, 57, 50, 58, 54, 177, 3, 191, 125, 184, 219, 62, 38, 47, 55, 191, 0, 235, 131, 0, 236, 123, 235, 127, 245, 57, 50, 58, 202, 89, 75, 62, 178, 151, 242, 62, 130, 41, 57, 191, 0, 235, 131, 0, 188, 105, 238, 127, 245, 57, 49, 58, 94, 86, 171, 62, 147, 96, 164, 62, 234, 101, 50, 191, 0, 235, 131, 0, 173, 94, 240, 127, 244, 57, 49, 58, 22, 8, 224, 190, 94, 70, 114, 61, 143, 68, 141, 189, 254, 21, 125, 0, 236, 123, 235, 127, 209, 57, 51, 58, 77, 221, 4, 191, 170, 10, 14, 63, 122, 109, 30, 190, 254, 21, 125, 0, 236, 123, 235, 127, 210, 57, 51, 58, 100, 35, 130, 191, 181, 120, 247, 61, 247, 185, 186, 189, 254, 21, 125, 0, 236, 123, 235, 127, 210, 57, 50, 58, 22, 8, 224, 190, 94, 70, 114, 61, 143, 68, 141, 189, 16, 24, 123, 0, 112, 52, 231, 127, 209, 57, 51, 58, 70, 243, 77, 63, 237, 68, 35, 63, 30, 182, 178, 190, 16, 24, 123, 0, 112, 52, 231, 127, 210, 57, 51, 58, 77, 221, 4, 191, 170, 10, 14, 63, 122, 109, 30, 190, 16, 24, 123, 0, 112, 52, 231, 127, 210, 57, 50, 58, 22, 8, 224, 190, 94, 70, 114, 61, 143, 68, 141, 189, 11, 34, 121, 0, 99, 179, 12, 127, 209, 57, 51, 58, 49, 234, 210, 62, 175, 181, 17, 191, 128, 74, 245, 60, 11, 34, 121, 0, 101, 181, 11, 127, 210, 57, 51, 58, 236, 104, 162, 63, 111, 234, 128, 61, 97, 91, 109, 190, 11, 34, 121, 0, 66, 151, 23, 127, 210, 57, 50, 58, 170, 44, 160, 63, 121, 172, 222, 61, 179, 12, 121, 190, 11, 34, 121, 0, 44, 141, 28, 127, 209, 57, 50, 58, 7, 224, 96, 62, 81, 68, 243, 62, 112, 56, 57, 191, 170, 182, 200, 0, 75, 156, 17, 127, 159, 57, 116, 52, 94, 86, 171, 62, 147, 96, 164, 62, 234, 101, 50, 191, 170, 182, 200, 0, 75, 156, 17, 127, 204, 57, 116, 52, 190, 179, 63, 62, 31, 109, 251, 62, 70, 245, 49, 191, 170, 182, 200, 0, 75, 156, 17, 127, 204, 57, 26, 52, 22, 8, 224, 190, 94, 70, 114, 61, 143, 68, 141, 189, 1, 22, 125, 0, 32, 136, 20, 127, 209, 57, 51, 58, 111, 197, 124, 190, 111, 44, 36, 191, 128, 177, 85, 61, 1, 22, 125, 0, 32, 136, 20, 127, 210, 57, 51, 58, 49, 234, 210, 62, 175, 181, 17, 191, 128, 74, 245, 60, 1, 22, 125, 0, 32, 136, 20, 127, 210, 57, 50, 58, 22, 8, 224, 190, 240, 119, 30, 189, 68, 120, 34, 191, 2, 235, 131, 0, 130, 13, 252, 127, 244, 57, 50, 58, 205, 240, 123, 191, 160, 252, 159, 60, 39, 213, 39, 191, 2, 235, 131, 0, 130, 13, 252, 127, 245, 57, 50, 58, 54, 177, 3, 191, 125, 184, 219, 62, 38, 47, 55, 191, 2, 235, 131, 0, 130, 13, 252, 127, 245, 57, 49, 58, 100, 35, 130, 191, 181, 120, 247, 61, 247, 185, 186, 189, 173, 93, 240, 0, 95, 83, 244, 127, 209, 57, 51, 58, 77, 221, 4, 191, 170, 10, 14, 63, 122, 109, 30, 190, 173, 93, 240, 0, 95, 83, 244, 127, 210, 57, 51, 58, 77, 221, 4, 191, 159, 107, 237, 62, 177, 128, 46, 191, 173, 93, 240, 0, 95, 83, 244, 127, 210, 57, 50, 58, 100, 35, 130, 191, 64, 71, 243, 60, 146, 60, 30, 191, 173, 93, 240, 0, 95, 83, 244, 127, 209, 57, 50, 58, 95, 110, 70, 62, 15, 230, 252, 62, 121, 167, 39, 191, 151, 70, 255, 0, 13, 22, 124, 127, 159, 57, 116, 52, 164, 148, 86, 62, 212, 209, 5, 63, 121, 158, 242, 190, 151, 70, 255, 0, 11, 19, 124, 127, 204, 57, 116, 52, 103, 45, 104, 62, 140, 59, 12, 63, 223, 214, 243, 190, 151, 70, 255, 0, 11, 19, 124, 127, 204, 57, 26, 52, 212, 152, 80, 62, 82, 82, 2, 63, 117, 125, 48, 191, 151, 70, 255, 0, 13, 22, 124, 127, 159, 57, 26, 52, 236, 104, 162, 63, 111, 234, 128, 61, 97, 91, 109, 190, 77, 158, 20, 0, 156, 181, 16, 127, 209, 57, 51, 58, 49, 234, 210, 62, 175, 181, 17, 191, 128, 74, 245, 60, 77, 158, 20, 0, 156, 184, 30, 127, 210, 57, 51, 58, 49, 234, 210, 62, 139, 10, 41, 191, 249, 117, 254, 190, 77, 158, 20, 0, 156, 183, 26, 127, 210, 57, 50, 58, 146, 59, 162, 63, 127, 74, 217, 188, 83, 131, 23, 191, 77, 158, 20, 0, 156, 180, 11, 127, 209, 57, 50, 58, 49, 234, 210, 62, 175, 181, 17, 191, 128, 74, 245, 60, 14, 132, 21, 0, 130, 243, 4, 127, 209, 57, 51, 58, 111, 197, 124, 190, 111, 44, 36, 191, 128, 177, 85, 61, 14, 132, 21, 0, 130, 243, 4, 127, 210, 57, 51, 58, 111, 197, 124, 190, 72, 129, 59, 191, 115, 20, 243, 190, 14, 132, 21, 0, 130, 243, 4, 127, 210, 57, 50, 58, 49, 234, 210, 62, 139, 10, 41, 191, 249, 117, 254, 190, 14, 132, 21, 0, 130, 243, 4, 127, 209, 57, 50, 58, 111, 197, 124, 190, 111, 44, 36, 191, 128, 177, 85, 61, 235, 133, 21, 0, 131, 21, 253, 127, 209, 57, 51, 58, 196, 92, 130, 191, 121, 93, 2, 191, 124, 68, 240, 60, 235, 133, 21, 0, 131, 21, 253, 127, 210, 57, 51, 58, 196, 92, 130, 191, 87, 178, 25, 191, 92, 198, 254, 190, 235, 133, 21, 0, 131, 21, 253, 127, 210, 57, 50, 58, 111, 197, 124, 190, 72, 129, 59, 191, 115, 20, 243, 190, 235, 133, 21, 0, 131, 21, 253, 127, 209, 57, 50, 58, 94, 86, 171, 62, 147, 96, 164, 62, 234, 101, 50, 191, 0, 235, 131, 0, 181, 100, 239, 127, 242, 57, 49, 58, 7, 224, 96, 62, 81, 68, 243, 62, 112, 56, 57, 191, 0, 235, 131, 0, 181, 100, 239, 127, 243, 57, 49, 58, 162, 18, 60, 63, 247, 228, 1, 63, 54, 166, 58, 191, 0, 235, 131, 0, 181, 100, 239, 127, 243, 57, 47, 58, 22, 8, 224, 190, 240, 119, 30, 189, 68, 120, 34, 191, 2, 232, 132, 0, 226, 135, 23, 127, 244, 57, 50, 58, 152, 134, 133, 191, 136, 226, 2, 191, 139, 139, 13, 191, 2, 232, 132, 0, 157, 179, 13, 127, 245, 57, 50, 58, 189, 254, 138, 191, 181, 184, 248, 190, 240, 2, 15, 191, 2, 232, 132, 0, 182, 155, 18, 127, 245, 57, 49, 58, 205, 240, 123, 191, 160, 252, 159, 60, 39, 213, 39, 191, 2, 232, 132, 0, 232, 134, 23, 127, 244, 57, 49, 58, 94, 86, 171, 62, 147, 96, 164, 62, 234, 101, 50, 191, 95, 82, 244, 0, 173, 94, 240, 127, 159, 57, 116, 52, 202, 89, 75, 62, 178, 151, 242, 62, 130, 41, 57, 191, 95, 82, 244, 0, 173, 94, 240, 127, 204, 57, 116, 52, 190, 179, 63, 62, 31, 109, 251, 62, 70, 245, 49, 191, 95, 82, 244, 0, 173, 94, 240, 127, 204, 57, 26, 52, 201, 203, 142, 191, 153, 143, 189, 190, 254, 223, 71, 59, 132, 24, 252, 0, 24, 122, 233, 127, 209, 57, 51, 58, 100, 35, 130, 191, 181, 120, 247, 61, 247, 185, 186, 189, 132, 24, 252, 0, 24, 122, 233, 127, 210, 57, 51, 58, 100, 35, 130, 191, 64, 71, 243, 60, 146, 60, 30, 191, 132, 24, 252, 0, 24, 122, 233, 127, 210, 57, 50, 58, 201, 203, 142, 191, 81, 57, 236, 190, 114, 29, 6, 191, 132, 24, 252, 0, 24, 122, 233, 127, 209, 57, 50, 58, 22, 8, 224, 190, 240, 119, 30, 189, 68, 120, 34, 191, 0, 235, 131, 0, 32, 136, 20, 127, 244, 57, 50, 58, 52, 224, 131, 190, 84, 35, 51, 191, 1, 51, 5, 191, 0, 235, 131, 0, 32, 136, 20, 127, 245, 57, 50, 58, 206, 168, 131, 191, 0, 91, 17, 191, 209, 10, 11, 191, 0, 235, 131, 0, 32, 135, 20, 127, 245, 57, 49, 58, 152, 134, 133, 191, 136, 226, 2, 191, 139, 139, 13, 191, 0, 235, 131, 0, 31, 135, 20, 127, 244, 57, 49, 58, 182, 198, 170, 190, 27, 240, 218, 188, 104, 241, 217, 190, 254, 240, 125, 0, 127, 0, 0, 129, 23, 52, 19, 52, 93, 209, 31, 191, 105, 202, 177, 190, 246, 229, 242, 190, 254, 240, 125, 0, 127, 0, 0, 129, 23, 52, 19, 52, 222, 113, 119, 190, 112, 46, 4, 191, 236, 219, 249, 190, 254, 240, 125, 0, 127, 0, 0, 129, 23, 52, 19, 52, 182, 198, 170, 190, 27, 240, 218, 188, 104, 241, 217, 190, 0, 238, 125, 0, 127, 0, 0, 129, 23, 52, 19, 52, 82, 177, 80, 191, 183, 250, 128, 61, 114, 24, 212, 190, 0, 238, 125, 0, 127, 0, 0, 129, 23, 52, 19, 52, 93, 209, 31, 191, 105, 202, 177, 190, 246, 229, 242, 190, 0, 238, 125, 0, 127, 0, 0, 129, 23, 52, 19, 52, 182, 198, 170, 190, 27, 240, 218, 188, 104, 241, 217, 190, 0, 239, 125, 0, 127, 0, 0, 129, 23, 52, 19, 52, 29, 170, 221, 190, 173, 198, 225, 62, 238, 242, 184, 190, 0, 239, 125, 0, 127, 0, 0, 129, 23, 52, 19, 52, 82, 177, 80, 191, 183, 250, 128, 61, 114, 24, 212, 190, 0, 239, 125, 0, 127, 0, 0, 129, 23, 52, 19, 52, 182, 198, 170, 190, 27, 240, 218, 188, 104, 241, 217, 190, 1, 239, 125, 0, 127, 0, 0, 129, 23, 52, 19, 52, 175, 194, 90, 61, 253, 100, 193, 62, 6, 148, 191, 190, 1, 239, 125, 0, 127, 0, 0, 129, 23, 52, 19, 52, 29, 170, 221, 190, 173, 198, 225, 62, 238, 242, 184, 190, 1, 239, 125, 0, 127, 0, 0, 129, 23, 52, 19, 52, 182, 198, 170, 190, 27, 240, 218, 188, 104, 241, 217, 190, 0, 240, 125, 0, 127, 0, 0, 129, 23, 52, 19, 52, 219, 224, 23, 62, 0, 166, 25, 59, 88, 53, 217, 190, 0, 240, 125, 0, 127, 0, 0, 129, 23, 52, 19, 52, 175, 194, 90, 61, 253, 100, 193, 62, 6, 148, 191, 190, 0, 240, 125, 0, 127, 0, 0, 129, 23, 52, 19, 52, 182, 198, 170, 190, 27, 240, 218, 188, 104, 241, 217, 190, 0, 239, 125, 0, 127, 0, 0, 129, 23, 52, 19, 52, 155, 159, 52, 62, 52, 149, 195, 190, 208, 0, 244, 190, 0, 239, 125, 0, 127, 0, 0, 129, 23, 52, 19, 52, 219, 224, 23, 62, 0, 166, 25, 59, 88, 53, 217, 190, 0, 239, 125, 0, 127, 0, 0, 129, 23, 52, 19, 52, 182, 198, 170, 190, 27, 240, 218, 188, 104, 241, 217, 190, 1, 241, 126, 0, 127, 0, 0, 129, 23, 52, 19, 52, 222, 113, 119, 190, 112, 46, 4, 191, 236, 219, 249, 190, 1, 241, 126, 0, 127, 0, 0, 129, 23, 52, 19, 52, 155, 159, 52, 62, 52, 149, 195, 190, 208, 0, 244, 190, 1, 241, 126, 0, 127, 0, 0, 129, 23, 52, 19, 52, 182, 198, 170, 190, 157, 144, 136, 188, 188, 117, 116, 191, 255, 15, 130, 0, 127, 0, 0, 127, 23, 52, 19, 52, 14, 151, 114, 61, 33, 164, 148, 190, 4, 127, 126, 191, 255, 15, 130, 0, 127, 0, 0, 127, 23, 52, 19, 52, 149, 136, 134, 190, 58, 158, 201, 190, 45, 96, 128, 191, 255, 15, 130, 0, 127, 0, 0, 127, 23, 52, 19, 52, 93, 209, 31, 191, 105, 202, 177, 190, 246, 229, 242, 190, 141, 203, 255, 0, 127, 0, 0, 127, 23, 52, 19, 52, 82, 177, 80, 191, 183, 250, 128, 61, 114, 24, 212, 190, 141, 203, 255, 0, 127, 0, 0, 127, 23, 52, 19, 52, 82, 177, 80, 191, 247, 117, 145, 61, 221, 123, 86, 191, 141, 203, 255, 0, 127, 0, 0, 127, 23, 52, 19, 52, 93, 209, 31, 191, 149, 171, 173, 190, 155, 226, 101, 191, 141, 203, 255, 0, 127, 0, 0, 127, 23, 52, 19, 52, 82, 177, 80, 191, 183, 250, 128, 61, 114, 24, 212, 190, 167, 90, 1, 0, 127, 0, 0, 129, 23, 52, 19, 52, 29, 170, 221, 190, 173, 198, 225, 62, 238, 242, 184, 190, 167, 90, 1, 0, 127, 0, 0, 129, 23, 52, 19, 52, 29, 170, 221, 190, 129, 229, 229, 62, 27, 233, 72, 191, 167, 90, 1, 0, 127, 0, 0, 129, 23, 52, 19, 52, 82, 177, 80, 191, 247, 117, 145, 61, 221, 123, 86, 191, 167, 90, 1, 0, 127, 0, 0, 129, 23, 52, 19, 52, 29, 170, 221, 190, 173, 198, 225, 62, 238, 242, 184, 190, 16, 125, 2, 0, 127, 0, 0, 129, 23, 52, 19, 52, 175, 194, 90, 61, 253, 100, 193, 62, 6, 148, 191, 190, 16, 125, 2, 0, 127, 0, 0, 129, 23, 52, 19, 52, 175, 194, 90, 61, 205, 131, 197, 62, 167, 57, 76, 191, 16, 125, 2, 0, 127, 0, 0, 129, 23, 52, 19, 52, 29, 170, 221, 190, 129, 229, 229, 62, 27, 233, 72, 191, 16, 125, 2, 0, 127, 0, 0, 129, 23, 52, 19, 52, 175, 194, 90, 61, 253, 100, 193, 62, 6, 148, 191, 190, 123, 31, 0, 0, 127, 0, 0, 129, 23, 52, 19, 52, 219, 224, 23, 62, 0, 166, 25, 59, 88, 53, 217, 190, 123, 31, 0, 0, 127, 0, 0, 129, 23, 52, 19, 52, 219, 224, 23, 62, 117, 67, 42, 60, 82, 10, 89, 191, 123, 31, 0, 0, 127, 0, 0, 129, 23, 52, 19, 52, 175, 194, 90, 61, 205, 131, 197, 62, 167, 57, 76, 191, 123, 31, 0, 0, 127, 0, 0, 129, 23, 52, 19, 52, 219, 224, 23, 62, 0, 166, 25, 59, 88, 53, 217, 190, 126, 9, 0, 0, 127, 0, 0, 129, 23, 52, 19, 52, 155, 159, 52, 62, 52, 149, 195, 190, 208, 0, 244, 190, 126, 9, 0, 0, 127, 0, 0, 129, 23, 52, 19, 52, 155, 159, 52, 62, 103, 118, 191, 190, 10, 112, 102, 191, 126, 9, 0, 0, 127, 0, 0, 129, 23, 52, 19, 52, 219, 224, 23, 62, 117, 67, 42, 60, 82, 10, 89, 191, 126, 9, 0, 0, 127, 0, 0, 129, 23, 52, 19, 52, 155, 159, 52, 62, 52, 149, 195, 190, 208, 0, 244, 190, 38, 136, 254, 0, 127, 0, 0, 127, 23, 52, 19, 52, 222, 113, 119, 190, 112, 46, 4, 191, 236, 219, 249, 190, 38, 136, 254, 0, 127, 0, 0, 127, 23, 52, 19, 52, 222, 113, 119, 190, 6, 31, 2, 191, 152, 93, 105, 191, 38, 136, 254, 0, 127, 0, 0, 127, 23, 52, 19, 52, 155, 159, 52, 62, 103, 118, 191, 190, 10, 112, 102, 191, 38, 136, 254, 0, 127, 0, 0, 127, 23, 52, 19, 52, 222, 113, 119, 190, 112, 46, 4, 191, 236, 219, 249, 190, 205, 140, 254, 0, 127, 0, 0, 127, 23, 52, 19, 52, 93, 209, 31, 191, 105, 202, 177, 190, 246, 229, 242, 190, 205, 140, 254, 0, 127, 0, 0, 127, 23, 52, 19, 52, 93, 209, 31, 191, 149, 171, 173, 190, 155, 226, 101, 191, 205, 140, 254, 0, 127, 0, 0, 127, 23, 52, 19, 52, 222, 113, 119, 190, 6, 31, 2, 191, 152, 93, 105, 191, 205, 140, 254, 0, 127, 0, 0, 127, 23, 52, 19, 52, 182, 198, 170, 190, 157, 144, 136, 188, 188, 117, 116, 191, 0, 18, 131, 0, 127, 0, 0, 127, 23, 52, 19, 52, 125, 183, 14, 191, 212, 239, 134, 190, 21, 18, 126, 191, 0, 18, 131, 0, 127, 0, 0, 127, 23, 52, 19, 52, 173, 92, 52, 191, 112, 185, 86, 61, 57, 53, 114, 191, 0, 18, 131, 0, 127, 0, 0, 127, 23, 52, 19, 52, 182, 198, 170, 190, 157, 144, 136, 188, 188, 117, 116, 191, 0, 17, 131, 0, 127, 0, 0, 127, 23, 52, 19, 52, 32, 7, 26, 61, 0, 115, 187, 59, 80, 45, 116, 191, 0, 17, 131, 0, 127, 0, 0, 127, 23, 52, 19, 52, 14, 151, 114, 61, 33, 164, 148, 190, 4, 127, 126, 191, 0, 17, 131, 0, 127, 0, 0, 127, 23, 52, 19, 52, 182, 198, 170, 190, 157, 144, 136, 188, 188, 117, 116, 191, 0, 16, 131, 0, 127, 0, 0, 127, 23, 52, 19, 52, 159, 103, 17, 189, 215, 246, 150, 62, 106, 78, 106, 191, 0, 16, 131, 0, 127, 0, 0, 127, 23, 52, 19, 52, 32, 7, 26, 61, 0, 115, 187, 59, 80, 45, 116, 191, 0, 16, 131, 0, 127, 0, 0, 127, 23, 52, 19, 52, 182, 198, 170, 190, 157, 144, 136, 188, 188, 117, 116, 191, 255, 17, 131, 0, 127, 0, 0, 127, 23, 52, 19, 52, 238, 248, 209, 190, 229, 231, 175, 62, 212, 192, 103, 191, 255, 17, 131, 0, 127, 0, 0, 127, 23, 52, 19, 52, 159, 103, 17, 189, 215, 246, 150, 62, 106, 78, 106, 191, 255, 17, 131, 0, 127, 0, 0, 127, 23, 52, 19, 52, 182, 198, 170, 190, 157, 144, 136, 188, 188, 117, 116, 191, 0, 17, 131, 0, 127, 0, 0, 127, 23, 52, 19, 52, 173, 92, 52, 191, 112, 185, 86, 61, 57, 53, 114, 191, 0, 17, 131, 0, 127, 0, 0, 127, 23, 52, 19, 52, 238, 248, 209, 190, 229, 231, 175, 62, 212, 192, 103, 191, 0, 17, 131, 0, 127, 0, 0, 127, 23, 52, 19, 52, 195, 228, 67, 63, 192, 252, 101, 63, 250, 246, 181, 190, 0, 0, 129, 0, 127, 0, 0, 127, 23, 52, 19, 52, 221, 6, 20, 63, 41, 210, 104, 62, 250, 246, 181, 190, 0, 0, 129, 0, 127, 0, 0, 127, 23, 52, 19, 52, 98, 253, 246, 62, 180, 140, 181, 62, 250, 246, 181, 190, 0, 0, 129, 0, 127, 0, 0, 127, 23, 52, 19, 52, 193, 42, 28, 63, 234, 6, 80, 63, 250, 246, 181, 190, 0, 0, 129, 0, 127, 0, 0, 127, 23, 52, 19, 52, 233, 104, 112, 63, 234, 180, 75, 63, 213, 214, 146, 190, 99, 78, 0, 0, 127, 0, 0, 127, 23, 52, 19, 52, 219, 16, 74, 63, 85, 35, 124, 63, 213, 214, 146, 190, 99, 78, 0, 0, 127, 0, 0, 127, 23, 52, 19, 52, 219, 16, 74, 63, 85, 35, 124, 63, 142, 66, 14, 61, 99, 78, 0, 0, 127, 0, 0, 127, 23, 52, 19, 52, 233, 104, 112, 63, 234, 180, 75, 63, 142, 66, 14, 61, 99, 78, 0, 0, 127, 0, 0, 127, 23, 52, 19, 52, 171, 201, 12, 63, 170, 67, 90, 63, 213, 214, 146, 190, 134, 34, 0, 0, 127, 0, 0, 127, 23, 52, 19, 52, 114, 95, 220, 62, 41, 227, 216, 62, 213, 214, 146, 190, 134, 34, 0, 0, 127, 0, 0, 127, 23, 52, 19, 52, 114, 95, 220, 62, 41, 227, 216, 62, 142, 66, 14, 61, 134, 34, 0, 0, 127, 0, 0, 127, 23, 52, 19, 52, 171, 201, 12, 63, 170, 67, 90, 63, 142, 66, 14, 61, 134, 34, 0, 0, 127, 0, 0, 127, 23, 52, 19, 52, 219, 16, 74, 63, 85, 35, 124, 63, 142, 66, 14, 61, 0, 0, 127, 0, 127, 0, 0, 129, 23, 52, 19, 52, 221, 6, 20, 63, 48, 210, 104, 62, 142, 66, 14, 61, 0, 0, 127, 0, 127, 0, 0, 129, 23, 52, 19, 52, 213, 34, 108, 63, 200, 8, 176, 62, 142, 66, 14, 61, 0, 0, 127, 0, 127, 0, 0, 129, 23, 52, 19, 52, 233, 104, 112, 63, 234, 180, 75, 63, 142, 66, 14, 61, 0, 0, 127, 0, 127, 0, 0, 129, 23, 52, 19, 52, 114, 95, 220, 62, 41, 227, 216, 62, 213, 214, 146, 190, 155, 180, 0, 0, 127, 0, 0, 127, 23, 52, 19, 52, 98, 253, 246, 62, 180, 140, 181, 62, 250, 246, 181, 190, 155, 180, 0, 0, 127, 0, 0, 127, 23, 52, 19, 52, 221, 6, 20, 63, 41, 210, 104, 62, 250, 246, 181, 190, 155, 180, 0, 0, 127, 0, 0, 127, 23, 52, 19, 52, 221, 6, 20, 63, 48, 210, 104, 62, 142, 66, 14, 61, 155, 180, 0, 0, 127, 0, 0, 127, 23, 52, 19, 52, 114, 95, 220, 62, 41, 227, 216, 62, 142, 66, 14, 61, 155, 180, 0, 0, 127, 0, 0, 127, 23, 52, 19, 52, 213, 34, 108, 63, 200, 8, 176, 62, 213, 214, 146, 190, 126, 252, 0, 0, 127, 0, 0, 127, 23, 52, 19, 52, 233, 104, 112, 63, 234, 180, 75, 63, 213, 214, 146, 190, 126, 252, 0, 0, 127, 0, 0, 127, 23, 52, 19, 52, 233, 104, 112, 63, 234, 180, 75, 63, 142, 66, 14, 61, 126, 252, 0, 0, 127, 0, 0, 127, 23, 52, 19, 52, 213, 34, 108, 63, 200, 8, 176, 62, 142, 66, 14, 61, 126, 252, 0, 0, 127, 0, 0, 127, 23, 52, 19, 52, 171, 201, 12, 63, 170, 67, 90, 63, 142, 66, 14, 61, 0, 0, 127, 0, 127, 0, 0, 129, 23, 52, 19, 52, 114, 95, 220, 62, 41, 227, 216, 62, 142, 66, 14, 61, 0, 0, 127, 0, 127, 0, 0, 129, 23, 52, 19, 52, 221, 6, 20, 63, 41, 210, 104, 62, 250, 246, 181, 190, 40, 136, 0, 0, 127, 0, 0, 127, 23, 52, 19, 52, 190, 86, 90, 63, 167, 253, 163, 62, 250, 246, 181, 190, 40, 136, 0, 0, 127, 0, 0, 127, 23, 52, 19, 52, 213, 34, 108, 63, 200, 8, 176, 62, 213, 214, 146, 190, 40, 136, 0, 0, 127, 0, 0, 127, 23, 52, 19, 52, 213, 34, 108, 63, 200, 8, 176, 62, 142, 66, 14, 61, 40, 136, 0, 0, 127, 0, 0, 127, 23, 52, 19, 52, 221, 6, 20, 63, 48, 210, 104, 62, 142, 66, 14, 61, 40, 136, 0, 0, 127, 0, 0, 127, 23, 52, 19, 52, 195, 143, 94, 63, 187, 77, 68, 63, 250, 246, 181, 190, 0, 0, 129, 0, 127, 0, 0, 127, 23, 52, 19, 52, 190, 86, 90, 63, 167, 253, 163, 62, 250, 246, 181, 190, 0, 0, 129, 0, 127, 0, 0, 127, 23, 52, 19, 52, 221, 6, 20, 63, 41, 210, 104, 62, 250, 246, 181, 190, 0, 0, 129, 0, 127, 0, 0, 127, 23, 52, 19, 52, 195, 228, 67, 63, 192, 252, 101, 63, 250, 246, 181, 190, 0, 0, 129, 0, 127, 0, 0, 127, 23, 52, 19, 52, 139, 149, 125, 63, 255, 194, 179, 59, 250, 246, 181, 190, 0, 0, 129, 0, 127, 0, 0, 127, 27, 51, 236, 57, 227, 227, 165, 63, 46, 112, 44, 63, 250, 246, 181, 190, 0, 0, 129, 0, 127, 0, 0, 127, 27, 51, 236, 57, 221, 120, 177, 63, 22, 218, 0, 63, 250, 246, 181, 190, 0, 0, 129, 0, 127, 0, 0, 127, 27, 51, 236, 57, 203, 158, 152, 63, 55, 27, 161, 61, 250, 246, 181, 190, 0, 0, 129, 0, 127, 0, 0, 127, 27, 51, 236, 57, 187, 73, 95, 63, 25, 243, 92, 62, 113, 120, 160, 190, 146, 194, 0, 0, 127, 0, 0, 127, 27, 51, 236, 57, 12, 104, 103, 63, 66, 63, 35, 62, 250, 246, 181, 190, 146, 194, 0, 0, 127, 0, 0, 127, 27, 51, 236, 57, 139, 149, 125, 63, 255, 194, 179, 59, 250, 246, 181, 190, 146, 194, 0, 0, 127, 0, 0, 127, 27, 51, 236, 57, 139, 149, 125, 63, 255, 194, 179, 59, 158, 66, 14, 61, 146, 194, 0, 0, 127, 0, 0, 127, 27, 51, 236, 57, 187, 73, 95, 63, 32, 243, 92, 62, 142, 66, 14, 61, 146, 194, 0, 0, 127, 0, 0, 127, 27, 51, 236, 57, 11, 180, 159, 63, 191, 52, 202, 61, 113, 120, 160, 190, 115, 204, 0, 0, 127, 0, 0, 127, 27, 51, 236, 57, 161, 103, 183, 63, 49, 245, 0, 63, 113, 120, 160, 190, 115, 204, 0, 0, 127, 0, 0, 127, 27, 51, 236, 57, 161, 103, 183, 63, 49, 245, 0, 63, 142, 66, 14, 61, 115, 204, 0, 0, 127, 0, 0, 127, 27, 51, 236, 57, 11, 180, 159, 63, 199, 52, 202, 61, 158, 66, 14, 61, 115, 204, 0, 0, 127, 0, 0, 127, 27, 51, 236, 57, 139, 149, 125, 63, 255, 194, 179, 59, 158, 66, 14, 61, 0, 0, 127, 0, 127, 0, 0, 129, 27, 51, 236, 57, 148, 165, 168, 63, 54, 127, 56, 63, 142, 66, 14, 61, 0, 0, 127, 0, 127, 0, 0, 129, 27, 51, 236, 57, 17, 155, 117, 63, 151, 213, 40, 63, 142, 66, 14, 61, 0, 0, 127, 0, 127, 0, 0, 129, 27, 51, 236, 57, 187, 73, 95, 63, 32, 243, 92, 62, 142, 66, 14, 61, 0, 0, 127, 0, 127, 0, 0, 129, 27, 51, 236, 57, 161, 103, 183, 63, 49, 245, 0, 63, 113, 120, 160, 190, 112, 59, 0, 0, 127, 0, 0, 127, 27, 51, 236, 57, 148, 165, 168, 63, 54, 127, 56, 63, 113, 120, 160, 190, 112, 59, 0, 0, 127, 0, 0, 127, 27, 51, 236, 57, 148, 165, 168, 63, 54, 127, 56, 63, 142, 66, 14, 61, 112, 59, 0, 0, 127, 0, 0, 127, 27, 51, 236, 57, 161, 103, 183, 63, 49, 245, 0, 63, 142, 66, 14, 61, 112, 59, 0, 0, 127, 0, 0, 127, 27, 51, 236, 57, 17, 155, 117, 63, 151, 213, 40, 63, 113, 120, 160, 190, 132, 24, 0, 0, 127, 0, 0, 127, 27, 51, 236, 57, 187, 73, 95, 63, 25, 243, 92, 62, 113, 120, 160, 190, 132, 24, 0, 0, 127, 0, 0, 127, 27, 51, 236, 57, 187, 73, 95, 63, 32, 243, 92, 62, 142, 66, 14, 61, 132, 24, 0, 0, 127, 0, 0, 127, 27, 51, 236, 57, 17, 155, 117, 63, 151, 213, 40, 63, 142, 66, 14, 61, 132, 24, 0, 0, 127, 0, 0, 127, 27, 51, 236, 57, 11, 180, 159, 63, 199, 52, 202, 61, 158, 66, 14, 61, 0, 0, 127, 0, 127, 0, 0, 129, 27, 51, 236, 57, 161, 103, 183, 63, 49, 245, 0, 63, 142, 66, 14, 61, 0, 0, 127, 0, 127, 0, 0, 129, 27, 51, 236, 57, 148, 165, 168, 63, 54, 127, 56, 63, 113, 120, 160, 190, 235, 125, 0, 0, 127, 0, 0, 127, 27, 51, 236, 57, 17, 155, 117, 63, 151, 213, 40, 63, 113, 120, 160, 190, 235, 125, 0, 0, 127, 0, 0, 127, 27, 51, 236, 57, 17, 155, 117, 63, 151, 213, 40, 63, 142, 66, 14, 61, 235, 125, 0, 0, 127, 0, 0, 127, 27, 51, 236, 57, 148, 165, 168, 63, 54, 127, 56, 63, 142, 66, 14, 61, 235, 125, 0, 0, 127, 0, 0, 127, 27, 51, 236, 57, 12, 104, 103, 63, 66, 63, 35, 62, 250, 246, 181, 190, 0, 0, 129, 0, 127, 0, 0, 127, 27, 51, 236, 57, 193, 173, 126, 63, 110, 68, 31, 63, 250, 246, 181, 190, 0, 0, 129, 0, 127, 0, 0, 127, 27, 51, 236, 57, 77, 221, 4, 191, 170, 10, 14, 63, 122, 109, 30, 190, 247, 123, 231, 0, 96, 24, 79, 129, 209, 57, 50, 58, 70, 243, 77, 63, 237, 68, 35, 63, 30, 182, 178, 190, 247, 123, 231, 0, 126, 9, 251, 129, 210, 57, 50, 58, 70, 243, 77, 63, 196, 179, 12, 63, 216, 80, 50, 191, 247, 123, 231, 0, 126, 7, 245, 129, 210, 57, 50, 58, 212, 152, 80, 62, 82, 82, 2, 63, 117, 125, 48, 191, 247, 123, 231, 0, 111, 253, 196, 129, 210, 57, 51, 58, 103, 45, 104, 62, 140, 59, 12, 63, 223, 214, 243, 190, 247, 123, 231, 0, 57, 238, 145, 127, 210, 57, 51, 58, 147, 108, 26, 62, 145, 26, 20, 63, 252, 120, 166, 190, 247, 123, 231, 0, 175, 231, 163, 127, 209, 57, 51, 58, 67, 60, 69, 62, 242, 196, 11, 63, 140, 106, 241, 190, 247, 123, 231, 0, 172, 12, 93, 129, 209, 57, 51, 58, 200, 198, 53, 62, 180, 225, 1, 63, 87, 111, 48, 191, 247, 123, 231, 0, 225, 22, 121, 129, 209, 57, 50, 58, 77, 221, 4, 191, 159, 107, 237, 62, 177, 128, 46, 191, 247, 123, 231, 0, 57, 27, 109, 129, 209, 57, 50, 58, 103, 45, 104, 62, 140, 59, 12, 63, 223, 214, 243, 190, 162, 59, 197, 0, 185, 152, 9, 127, 159, 57, 116, 52, 164, 148, 86, 62, 212, 209, 5, 63, 121, 158, 242, 190, 162, 59, 197, 0, 185, 152, 9, 127, 204, 57, 116, 52, 147, 108, 26, 62, 145, 26, 20, 63, 252, 120, 166, 190, 162, 59, 197, 0, 185, 152, 9, 127, 204, 57, 26, 52, 70, 243, 77, 63, 237, 68, 35, 63, 30, 182, 178, 190, 90, 86, 235, 0, 89, 168, 16, 127, 209, 57, 51, 58, 254, 68, 163, 63, 190, 133, 45, 62, 220, 105, 134, 190, 90, 86, 235, 0, 89, 168, 16, 127, 210, 57, 51, 58, 254, 68, 163, 63, 48, 130, 166, 61, 183, 42, 28, 191, 90, 86, 235, 0, 89, 168, 16, 127, 210, 57, 50, 58, 70, 243, 77, 63, 196, 179, 12, 63, 216, 80, 50, 191, 90, 86, 235, 0, 89, 168, 16, 127, 209, 57, 50, 58, 164, 148, 86, 62, 212, 209, 5, 63, 121, 158, 242, 190, 102, 73, 12, 0, 182, 102, 10, 127, 159, 57, 116, 52, 67, 60, 69, 62, 242, 196, 11, 63, 140, 106, 241, 190, 102, 73, 12, 0, 182, 102, 10, 127, 204, 57, 116, 52, 147, 108, 26, 62, 145, 26, 20, 63, 252, 120, 166, 190, 102, 73, 12, 0, 182, 102, 10, 127, 204, 57, 26, 52, 200, 198, 53, 62, 180, 225, 1, 63, 87, 111, 48, 191, 101, 73, 236, 0, 10, 20, 124, 127, 159, 57, 116, 52, 67, 60, 69, 62, 242, 196, 11, 63, 140, 106, 241, 190, 101, 73, 236, 0, 8, 22, 124, 127, 204, 57, 116, 52, 164, 148, 86, 62, 212, 209, 5, 63, 121, 158, 242, 190, 101, 73, 236, 0, 8, 22, 124, 127, 204, 57, 26, 52, 95, 110, 70, 62, 15, 230, 252, 62, 121, 167, 39, 191, 101, 73, 236, 0, 10, 19, 125, 127, 159, 57, 26, 52, 236, 104, 162, 63, 111, 234, 128, 61, 97, 91, 109, 190, 10, 34, 121, 0, 7, 121, 221, 127, 209, 57, 51, 58, 254, 68, 163, 63, 190, 133, 45, 62, 220, 105, 134, 190, 10, 34, 121, 0, 7, 121, 221, 127, 210, 57, 51, 58, 170, 44, 160, 63, 121, 172, 222, 61, 179, 12, 121, 190, 10, 34, 121, 0, 7, 121, 221, 127, 210, 57, 50, 58, 254, 68, 163, 63, 48, 130, 166, 61, 183, 42, 28, 191, 126, 248, 1, 0, 0, 30, 123, 127, 209, 57, 51, 58, 254, 68, 163, 63, 190, 133, 45, 62, 220, 105, 134, 190, 126, 248, 1, 0, 0, 31, 123, 127, 210, 57, 51, 58, 236, 104, 162, 63, 111, 234, 128, 61, 97, 91, 109, 190, 126, 248, 1, 0, 0, 31, 123, 127, 210, 57, 50, 58, 146, 59, 162, 63, 127, 74, 217, 188, 83, 131, 23, 191, 126, 248, 1, 0, 0, 30, 123, 127, 209, 57, 50, 58, 206, 168, 131, 191, 0, 91, 17, 191, 209, 10, 11, 191, 4, 236, 131, 0, 185, 102, 237, 127, 240, 57, 49, 58, 189, 254, 138, 191, 181, 184, 248, 190, 240, 2, 15, 191, 4, 236, 131, 0, 185, 102, 237, 127, 241, 57, 49, 58, 152, 134, 133, 191, 136, 226, 2, 191, 139, 139, 13, 191, 4, 236, 131, 0, 185, 102, 237, 127, 241, 57, 48, 58, 22, 8, 224, 190, 94, 70, 114, 61, 143, 68, 141, 189, 11, 34, 121, 0, 95, 174, 14, 127, 209, 57, 51, 58, 170, 44, 160, 63, 121, 172, 222, 61, 179, 12, 121, 190, 11, 34, 121, 0, 126, 3, 243, 127, 210, 57, 51, 58, 254, 68, 163, 63, 190, 133, 45, 62, 220, 105, 134, 190, 11, 34, 121, 0, 120, 216, 0, 127, 210, 57, 50, 58, 70, 243, 77, 63, 237, 68, 35, 63, 30, 182, 178, 190, 11, 34, 121, 0, 89, 168, 16, 127, 209, 57, 50, 58, 201, 203, 142, 191, 153, 143, 189, 190, 254, 223, 71, 59, 252, 20, 125, 0, 71, 154, 19, 127, 209, 57, 51, 58, 196, 92, 130, 191, 121, 93, 2, 191, 124, 68, 240, 60, 252, 20, 125, 0, 71, 154, 19, 127, 210, 57, 51, 58, 152, 134, 133, 191, 72, 173, 211, 190, 254, 9, 81, 60, 252, 20, 125, 0, 71, 154, 19, 127, 210, 57, 50, 58, 201, 203, 142, 191, 153, 143, 189, 190, 254, 223, 71, 59, 152, 186, 12, 0, 0, 235, 131, 127, 209, 57, 51, 58, 201, 203, 142, 191, 81, 57, 236, 190, 114, 29, 6, 191, 152, 186, 12, 0, 0, 235, 131, 127, 210, 57, 51, 58, 196, 92, 130, 191, 87, 178, 25, 191, 92, 198, 254, 190, 152, 186, 12, 0, 0, 235, 131, 127, 210, 57, 50, 58, 196, 92, 130, 191, 121, 93, 2, 191, 124, 68, 240, 60, 152, 186, 12, 0, 0, 235, 131, 127, 209, 57, 50, 58, 22, 8, 224, 190, 240, 119, 30, 189, 68, 120, 34, 191, 0, 237, 131, 0, 126, 3, 0, 127, 244, 57, 50, 58, 71, 30, 160, 63, 123, 52, 50, 60, 109, 38, 35, 191, 0, 237, 131, 0, 126, 3, 0, 127, 245, 57, 50, 58, 198, 117, 186, 62, 88, 182, 33, 191, 223, 145, 10, 191, 0, 237, 131, 0, 126, 3, 0, 127, 245, 57, 49, 58, 22, 8, 224, 190, 94, 70, 114, 61, 143, 68, 141, 189, 0, 21, 125, 0, 130, 12, 254, 127, 209, 57, 51, 58, 152, 134, 133, 191, 72, 173, 211, 190, 254, 9, 81, 60, 0, 21, 125, 0, 157, 179, 13, 127, 210, 57, 51, 58, 196, 92, 130, 191, 121, 93, 2, 191, 124, 68, 240, 60, 0, 21, 125, 0, 134, 223, 5, 127, 210, 57, 50, 58, 111, 197, 124, 190, 111, 44, 36, 191, 128, 177, 85, 61, 0, 21, 125, 0, 131, 21, 253, 127, 209, 57, 50, 58, 125, 183, 14, 191, 212, 239, 134, 190, 21, 18, 126, 191, 218, 177, 165, 0, 127, 0, 0, 127, 23, 52, 19, 52, 149, 136, 134, 190, 58, 158, 201, 190, 45, 96, 128, 191, 218, 177, 165, 0, 127, 0, 0, 127, 23, 52, 19, 52, 222, 113, 119, 190, 6, 31, 2, 191, 152, 93, 105, 191, 218, 177, 165, 0, 127, 0, 0, 127, 23, 52, 19, 52, 93, 209, 31, 191, 149, 171, 173, 190, 155, 226, 101, 191, 218, 177, 165, 0, 127, 0, 0, 127, 23, 52, 19, 52, 173, 92, 52, 191, 112, 185, 86, 61, 57, 53, 114, 191, 168, 228, 171, 0, 127, 0, 0, 127, 23, 52, 19, 52, 125, 183, 14, 191, 212, 239, 134, 190, 21, 18, 126, 191, 168, 228, 171, 0, 127, 0, 0, 127, 23, 52, 19, 52, 93, 209, 31, 191, 149, 171, 173, 190, 155, 226, 101, 191, 168, 228, 171, 0, 127, 0, 0, 127, 23, 52, 19, 52, 82, 177, 80, 191, 247, 117, 145, 61, 221, 123, 86, 191, 168, 228, 171, 0, 127, 0, 0, 127, 23, 52, 19, 52, 238, 248, 209, 190, 229, 231, 175, 62, 212, 192, 103, 191, 192, 76, 178, 0, 127, 0, 0, 127, 23, 52, 19, 52, 173, 92, 52, 191, 112, 185, 86, 61, 57, 53, 114, 191, 192, 76, 178, 0, 127, 0, 0, 127, 23, 52, 19, 52, 82, 177, 80, 191, 247, 117, 145, 61, 221, 123, 86, 191, 192, 76, 178, 0, 127, 0, 0, 127, 23, 52, 19, 52, 29, 170, 221, 190, 129, 229, 229, 62, 27, 233, 72, 191, 192, 76, 178, 0, 127, 0, 0, 127, 23, 52, 19, 52, 159, 103, 17, 189, 215, 246, 150, 62, 106, 78, 106, 191, 10, 96, 174, 0, 127, 0, 0, 127, 23, 52, 19, 52, 238, 248, 209, 190, 229, 231, 175, 62, 212, 192, 103, 191, 10, 96, 174, 0, 127, 0, 0, 127, 23, 52, 19, 52, 29, 170, 221, 190, 129, 229, 229, 62, 27, 233, 72, 191, 10, 96, 174, 0, 127, 0, 0, 127, 23, 52, 19, 52, 175, 194, 90, 61, 205, 131, 197, 62, 167, 57, 76, 191, 10, 96, 174, 0, 127, 0, 0, 127, 23, 52, 19, 52, 32, 7, 26, 61, 0, 115, 187, 59, 80, 45, 116, 191, 84, 33, 167, 0, 127, 0, 0, 127, 23, 52, 19, 52, 159, 103, 17, 189, 215, 246, 150, 62, 106, 78, 106, 191, 84, 33, 167, 0, 127, 0, 0, 127, 23, 52, 19, 52, 175, 194, 90, 61, 205, 131, 197, 62, 167, 57, 76, 191, 84, 33, 167, 0, 127, 0, 0, 127, 23, 52, 19, 52, 219, 224, 23, 62, 117, 67, 42, 60, 82, 10, 89, 191, 84, 33, 167, 0, 127, 0, 0, 127, 23, 52, 19, 52, 14, 151, 114, 61, 33, 164, 148, 190, 4, 127, 126, 191, 86, 18, 165, 0, 127, 0, 0, 127, 23, 52, 19, 52, 32, 7, 26, 61, 0, 115, 187, 59, 80, 45, 116, 191, 86, 18, 165, 0, 127, 0, 0, 127, 23, 52, 19, 52, 219, 224, 23, 62, 117, 67, 42, 60, 82, 10, 89, 191, 86, 18, 165, 0, 127, 0, 0, 127, 23, 52, 19, 52, 155, 159, 52, 62, 103, 118, 191, 190, 10, 112, 102, 191, 86, 18, 165, 0, 127, 0, 0, 127, 23, 52, 19, 52, 149, 136, 134, 190, 58, 158, 201, 190, 45, 96, 128, 191, 26, 182, 157, 0, 127, 0, 0, 127, 23, 52, 19, 52, 14, 151, 114, 61, 33, 164, 148, 190, 4, 127, 126, 191, 26, 182, 157, 0, 127, 0, 0, 127, 23, 52, 19, 52, 155, 159, 52, 62, 103, 118, 191, 190, 10, 112, 102, 191, 26, 182, 157, 0, 127, 0, 0, 127, 23, 52, 19, 52, 222, 113, 119, 190, 6, 31, 2, 191, 152, 93, 105, 191, 26, 182, 157, 0, 127, 0, 0, 127, 23, 52, 19, 52, 182, 198, 170, 190, 157, 144, 136, 188, 188, 117, 116, 191, 2, 16, 131, 0, 127, 0, 0, 127, 23, 52, 19, 52, 149, 136, 134, 190, 58, 158, 201, 190, 45, 96, 128, 191, 2, 16, 131, 0, 127, 0, 0, 127, 23, 52, 19, 52, 125, 183, 14, 191, 212, 239, 134, 190, 21, 18, 126, 191, 2, 16, 131, 0, 127, 0, 0, 127, 23, 52, 19, 52, 193, 42, 28, 63, 234, 6, 80, 63, 250, 246, 181, 190, 170, 24, 167, 0, 127, 0, 0, 127, 23, 52, 19, 52, 98, 253, 246, 62, 180, 140, 181, 62, 250, 246, 181, 190, 170, 24, 167, 0, 127, 0, 0, 127, 23, 52, 19, 52, 114, 95, 220, 62, 41, 227, 216, 62, 213, 214, 146, 190, 170, 24, 167, 0, 127, 0, 0, 127, 23, 52, 19, 52, 171, 201, 12, 63, 170, 67, 90, 63, 213, 214, 146, 190, 170, 24, 167, 0, 127, 0, 0, 127, 23, 52, 19, 52, 190, 86, 90, 63, 167, 253, 163, 62, 250, 246, 181, 190, 89, 253, 167, 0, 127, 0, 0, 127, 23, 52, 19, 52, 195, 143, 94, 63, 187, 77, 68, 63, 250, 246, 181, 190, 89, 253, 167, 0, 127, 0, 0, 127, 23, 52, 19, 52, 233, 104, 112, 63, 234, 180, 75, 63, 213, 214, 146, 190, 89, 253, 167, 0, 127, 0, 0, 127, 23, 52, 19, 52, 213, 34, 108, 63, 200, 8, 176, 62, 213, 214, 146, 190, 89, 253, 167, 0, 127, 0, 0, 127, 23, 52, 19, 52, 195, 228, 67, 63, 192, 252, 101, 63, 250, 246, 181, 190, 212, 81, 170, 0, 127, 0, 0, 127, 23, 52, 19, 52, 193, 42, 28, 63, 234, 6, 80, 63, 250, 246, 181, 190, 212, 81, 170, 0, 127, 0, 0, 127, 23, 52, 19, 52, 171, 201, 12, 63, 170, 67, 90, 63, 213, 214, 146, 190, 212, 81, 170, 0, 127, 0, 0, 127, 23, 52, 19, 52, 219, 16, 74, 63, 85, 35, 124, 63, 213, 214, 146, 190, 212, 81, 170, 0, 127, 0, 0, 127, 23, 52, 19, 52, 195, 143, 94, 63, 187, 77, 68, 63, 250, 246, 181, 190, 68, 54, 164, 0, 127, 0, 0, 127, 23, 52, 19, 52, 195, 228, 67, 63, 192, 252, 101, 63, 250, 246, 181, 190, 68, 54, 164, 0, 127, 0, 0, 127, 23, 52, 19, 52, 219, 16, 74, 63, 85, 35, 124, 63, 213, 214, 146, 190, 68, 54, 164, 0, 127, 0, 0, 127, 23, 52, 19, 52, 233, 104, 112, 63, 234, 180, 75, 63, 213, 214, 146, 190, 68, 54, 164, 0, 127, 0, 0, 127, 23, 52, 19, 52, 219, 16, 74, 63, 85, 35, 124, 63, 213, 214, 146, 190, 195, 111, 0, 0, 127, 0, 0, 127, 23, 52, 19, 52, 171, 201, 12, 63, 170, 67, 90, 63, 213, 214, 146, 190, 195, 111, 0, 0, 127, 0, 0, 127, 23, 52, 19, 52, 171, 201, 12, 63, 170, 67, 90, 63, 142, 66, 14, 61, 195, 111, 0, 0, 127, 0, 0, 127, 23, 52, 19, 52, 219, 16, 74, 63, 85, 35, 124, 63, 142, 66, 14, 61, 195, 111, 0, 0, 127, 0, 0, 127, 23, 52, 19, 52, 203, 158, 152, 63, 55, 27, 161, 61, 250, 246, 181, 190, 81, 219, 167, 0, 127, 0, 0, 127, 27, 51, 236, 57, 221, 120, 177, 63, 22, 218, 0, 63, 250, 246, 181, 190, 81, 219, 167, 0, 127, 0, 0, 127, 27, 51, 236, 57, 161, 103, 183, 63, 49, 245, 0, 63, 113, 120, 160, 190, 81, 219, 167, 0, 127, 0, 0, 127, 27, 51, 236, 57, 11, 180, 159, 63, 191, 52, 202, 61, 113, 120, 160, 190, 81, 219, 167, 0, 127, 0, 0, 127, 27, 51, 236, 57, 227, 227, 165, 63, 46, 112, 44, 63, 250, 246, 181, 190, 242, 87, 166, 0, 127, 0, 0, 127, 27, 51, 236, 57, 193, 173, 126, 63, 110, 68, 31, 63, 250, 246, 181, 190, 242, 87, 166, 0, 127, 0, 0, 127, 27, 51, 236, 57, 17, 155, 117, 63, 151, 213, 40, 63, 113, 120, 160, 190, 242, 87, 166, 0, 127, 0, 0, 127, 27, 51, 236, 57, 148, 165, 168, 63, 54, 127, 56, 63, 113, 120, 160, 190, 242, 87, 166, 0, 127, 0, 0, 127, 27, 51, 236, 57, 193, 173, 126, 63, 110, 68, 31, 63, 250, 246, 181, 190, 168, 17, 167, 0, 127, 0, 0, 127, 27, 51, 236, 57, 12, 104, 103, 63, 66, 63, 35, 62, 250, 246, 181, 190, 168, 17, 167, 0, 127, 0, 0, 127, 27, 51, 236, 57, 187, 73, 95, 63, 25, 243, 92, 62, 113, 120, 160, 190, 168, 17, 167, 0, 127, 0, 0, 127, 27, 51, 236, 57, 17, 155, 117, 63, 151, 213, 40, 63, 113, 120, 160, 190, 168, 17, 167, 0, 127, 0, 0, 127, 27, 51, 236, 57, 221, 120, 177, 63, 22, 218, 0, 63, 250, 246, 181, 190, 80, 42, 168, 0, 127, 0, 0, 127, 27, 51, 236, 57, 227, 227, 165, 63, 46, 112, 44, 63, 250, 246, 181, 190, 80, 42, 168, 0, 127, 0, 0, 127, 27, 51, 236, 57, 148, 165, 168, 63, 54, 127, 56, 63, 113, 120, 160, 190, 80, 42, 168, 0, 127, 0, 0, 127, 27, 51, 236, 57, 161, 103, 183, 63, 49, 245, 0, 63, 113, 120, 160, 190, 80, 42, 168, 0, 127, 0, 0, 127, 27, 51, 236, 57, 139, 149, 125, 63, 255, 194, 179, 59, 250, 246, 181, 190, 43, 137, 0, 0, 127, 0, 0, 127, 27, 51, 236, 57, 203, 158, 152, 63, 55, 27, 161, 61, 250, 246, 181, 190, 43, 137, 0, 0, 127, 0, 0, 127, 27, 51, 236, 57, 11, 180, 159, 63, 191, 52, 202, 61, 113, 120, 160, 190, 43, 137, 0, 0, 127, 0, 0, 127, 27, 51, 236, 57, 11, 180, 159, 63, 199, 52, 202, 61, 158, 66, 14, 61, 43, 137, 0, 0, 127, 0, 0, 127, 27, 51, 236, 57, 139, 149, 125, 63, 255, 194, 179, 59, 158, 66, 14, 61, 43, 137, 0, 0, 127, 0, 0, 127, 27, 51, 236, 57, 54, 177, 3, 191, 125, 184, 219, 62, 38, 47, 55, 191, 186, 69, 177, 0, 161, 173, 12, 127, 242, 57, 49, 58, 205, 240, 123, 191, 160, 252, 159, 60, 39, 213, 39, 191, 186, 69, 177, 0, 161, 173, 12, 127, 243, 57, 49, 58, 100, 35, 130, 191, 64, 71, 243, 60, 146, 60, 30, 191, 186, 69, 177, 0, 161, 173, 12, 127, 243, 57, 47, 58, 77, 221, 4, 191, 159, 107, 237, 62, 177, 128, 46, 191, 186, 69, 177, 0, 161, 173, 12, 127, 242, 57, 47, 58, 202, 89, 75, 62, 178, 151, 242, 62, 130, 41, 57, 191, 250, 88, 166, 0, 130, 249, 1, 127, 242, 57, 49, 58, 54, 177, 3, 191, 125, 184, 219, 62, 38, 47, 55, 191, 250, 88, 166, 0, 130, 249, 1, 127, 243, 57, 49, 58, 77, 221, 4, 191, 159, 107, 237, 62, 177, 128, 46, 191, 250, 88, 166, 0, 130, 249, 1, 127, 243, 57, 47, 58, 200, 198, 53, 62, 180, 225, 1, 63, 87, 111, 48, 191, 250, 88, 166, 0, 130, 249, 1, 127, 242, 57, 47, 58, 52, 224, 131, 190, 84, 35, 51, 191, 1, 51, 5, 191, 8, 155, 181, 0, 126, 13, 252, 127, 242, 57, 49, 58, 198, 117, 186, 62, 88, 182, 33, 191, 223, 145, 10, 191, 8, 155, 181, 0, 126, 13, 252, 127, 243, 57, 49, 58, 49, 234, 210, 62, 139, 10, 41, 191, 249, 117, 254, 190, 8, 155, 181, 0, 126, 13, 252, 127, 243, 57, 47, 58, 111, 197, 124, 190, 72, 129, 59, 191, 115, 20, 243, 190, 8, 155, 181, 0, 126, 13, 252, 127, 242, 57, 47, 58, 162, 18, 60, 63, 247, 228, 1, 63, 54, 166, 58, 191, 250, 86, 163, 0, 130, 248, 1, 127, 242, 57, 49, 58, 7, 224, 96, 62, 81, 68, 243, 62, 112, 56, 57, 191, 250, 86, 163, 0, 130, 248, 1, 127, 243, 57, 49, 58, 212, 152, 80, 62, 82, 82, 2, 63, 117, 125, 48, 191, 250, 86, 163, 0, 130, 248, 1, 127, 243, 57, 47, 58, 70, 243, 77, 63, 196, 179, 12, 63, 216, 80, 50, 191, 250, 86, 163, 0, 130, 248, 1, 127, 242, 57, 47, 58, 190, 179, 63, 62, 31, 109, 251, 62, 70, 245, 49, 191, 106, 67, 244, 0, 7, 222, 134, 127, 159, 57, 116, 52, 202, 89, 75, 62, 178, 151, 242, 62, 130, 41, 57, 191, 106, 67, 244, 0, 32, 187, 155, 127, 204, 57, 116, 52, 200, 198, 53, 62, 180, 225, 1, 63, 87, 111, 48, 191, 106, 67, 244, 0, 227, 23, 135, 127, 204, 57, 26, 52, 95, 110, 70, 62, 15, 230, 252, 62, 121, 167, 39, 191, 106, 67, 244, 0, 213, 47, 147, 127, 159, 57, 26, 52, 7, 224, 96, 62, 81, 68, 243, 62, 112, 56, 57, 191, 180, 86, 204, 0, 184, 0, 104, 127, 159, 57, 116, 52, 190, 179, 63, 62, 31, 109, 251, 62, 70, 245, 49, 191, 180, 86, 204, 0, 192, 9, 109, 127, 204, 57, 116, 52, 95, 110, 70, 62, 15, 230, 252, 62, 121, 167, 39, 191, 180, 86, 204, 0, 183, 255, 103, 127, 204, 57, 26, 52, 212, 152, 80, 62, 82, 82, 2, 63, 117, 125, 48, 191, 180, 86, 204, 0, 178, 248, 99, 127, 159, 57, 26, 52, 196, 92, 130, 191, 87, 178, 25, 191, 92, 198, 254, 190, 159, 182, 225, 0, 185, 102, 237, 127, 242, 57, 49, 58, 201, 203, 142, 191, 81, 57, 236, 190, 114, 29, 6, 191, 159, 182, 225, 0, 185, 102, 237, 127, 243, 57, 49, 58, 189, 254, 138, 191, 181, 184, 248, 190, 240, 2, 15, 191, 159, 182, 225, 0, 185, 102, 237, 127, 243, 57, 47, 58, 206, 168, 131, 191, 0, 91, 17, 191, 209, 10, 11, 191, 159, 182, 225, 0, 185, 102, 237, 127, 242, 57, 47, 58, 205, 240, 123, 191, 160, 252, 159, 60, 39, 213, 39, 191, 161, 3, 173, 0, 232, 134, 23, 127, 242, 57, 49, 58, 189, 254, 138, 191, 181, 184, 248, 190, 240, 2, 15, 191, 161, 3, 173, 0, 232, 134, 23, 127, 243, 57, 49, 58, 201, 203, 142, 191, 81, 57, 236, 190, 114, 29, 6, 191, 161, 3, 173, 0, 232, 134, 23, 127, 243, 57, 47, 58, 100, 35, 130, 191, 64, 71, 243, 60, 146, 60, 30, 191, 161, 3, 173, 0, 232, 134, 23, 127, 242, 57, 47, 58, 206, 168, 131, 191, 0, 91, 17, 191, 209, 10, 11, 191, 241, 152, 185, 0, 125, 235, 3, 127, 242, 57, 49, 58, 52, 224, 131, 190, 84, 35, 51, 191, 1, 51, 5, 191, 241, 152, 185, 0, 125, 235, 3, 127, 243, 57, 49, 58, 111, 197, 124, 190, 72, 129, 59, 191, 115, 20, 243, 190, 241, 152, 185, 0, 125, 235, 3, 127, 243, 57, 47, 58, 196, 92, 130, 191, 87, 178, 25, 191, 92, 198, 254, 190, 241, 152, 185, 0, 125, 235, 3, 127, 242, 57, 47, 58, 22, 8, 224, 190, 240, 119, 30, 189, 68, 120, 34, 191, 255, 234, 131, 0, 101, 181, 11, 127, 244, 57, 50, 58, 198, 117, 186, 62, 88, 182, 33, 191, 223, 145, 10, 191, 255, 234, 131, 0, 101, 181, 11, 127, 245, 57, 50, 58, 52, 224, 131, 190, 84, 35, 51, 191, 1, 51, 5, 191, 255, 234, 131, 0, 101, 181, 11, 127, 245, 57, 49, 58, 22, 8, 224, 190, 240, 119, 30, 189, 68, 120, 34, 191, 0, 234, 132, 0, 166, 87, 240, 127, 244, 57, 50, 58, 94, 86, 171, 62, 147, 96, 164, 62, 234, 101, 50, 191, 0, 234, 132, 0, 114, 53, 247, 129, 245, 57, 50, 58, 162, 18, 60, 63, 247, 228, 1, 63, 54, 166, 58, 191, 0, 234, 132, 0, 166, 87, 240, 127, 245, 57, 49, 58, 71, 30, 160, 63, 123, 52, 50, 60, 109, 38, 35, 191, 0, 234, 132, 0, 166, 87, 240, 127, 244, 57, 49, 58, 254, 68, 163, 63, 48, 130, 166, 61, 183, 42, 28, 191, 112, 239, 201, 0, 247, 132, 21, 127, 209, 57, 51, 58, 146, 59, 162, 63, 127, 74, 217, 188, 83, 131, 23, 191, 112, 239, 201, 0, 247, 132, 21, 127, 210, 57, 51, 58, 71, 30, 160, 63, 123, 52, 50, 60, 109, 38, 35, 191, 112, 239, 201, 0, 247, 132, 21, 127, 210, 57, 50, 58, 198, 117, 186, 62, 88, 182, 33, 191, 223, 145, 10, 191, 46, 180, 167, 0, 101, 75, 245, 127, 242, 57, 49, 58, 71, 30, 160, 63, 123, 52, 50, 60, 109, 38, 35, 191, 46, 180, 167, 0, 102, 74, 246, 127, 243, 57, 49, 58, 146, 59, 162, 63, 127, 74, 217, 188, 83, 131, 23, 191, 46, 180, 167, 0, 102, 74, 246, 127, 243, 57, 47, 58, 49, 234, 210, 62, 139, 10, 41, 191, 249, 117, 254, 190, 46, 180, 167, 0, 101, 75, 245, 127, 242, 57, 47, 58, 71, 30, 160, 63, 123, 52, 50, 60, 109, 38, 35, 191, 44, 24, 140, 0, 167, 88, 241, 127, 242, 57, 49, 58, 162, 18, 60, 63, 247, 228, 1, 63, 54, 166, 58, 191, 44, 24, 140, 0, 166, 87, 240, 127, 243, 57, 49, 58, 70, 243, 77, 63, 196, 179, 12, 63, 216, 80, 50, 191, 44, 24, 140, 0, 166, 87, 240, 127, 243, 57, 47, 58, 254, 68, 163, 63, 48, 130, 166, 61, 183, 42, 28, 191, 44, 24, 140, 0, 167, 88, 241, 127, 242, 57, 47, 58, 137, 143, 36, 191, 249, 121, 113, 63, 127, 232, 241, 59, 0, 0, 127, 0, 127, 0, 0, 129, 27, 51, 236, 57, 39, 39, 36, 191, 234, 16, 112, 63, 127, 232, 241, 59, 0, 0, 127, 0, 127, 0, 0, 129, 27, 51, 236, 57, 137, 143, 36, 191, 249, 121, 113, 63, 127, 232, 241, 59, 16, 125, 251, 0, 127, 0, 0, 127, 27, 51, 236, 57, 239, 27, 187, 62, 151, 162, 76, 63, 127, 232, 241, 59, 16, 125, 251, 0, 127, 0, 0, 127, 27, 51, 236, 57, 239, 27, 187, 62, 151, 162, 76, 63, 10, 51, 148, 190, 16, 125, 251, 0, 127, 0, 0, 127, 27, 51, 236, 57, 23, 228, 32, 191, 14, 236, 106, 63, 186, 83, 145, 190, 16, 125, 251, 0, 127, 0, 0, 127, 27, 51, 236, 57, 223, 239, 41, 191, 221, 249, 106, 63, 24, 193, 144, 190, 111, 59, 243, 0, 9, 11, 126, 127, 210, 57, 158, 51, 137, 143, 36, 191, 249, 121, 113, 63, 127, 232, 241, 59, 111, 59, 243, 0, 9, 11, 126, 127, 255, 57, 158, 51, 22, 9, 35, 191, 183, 250, 94, 63, 143, 96, 137, 190, 111, 59, 243, 0, 9, 11, 126, 127, 255, 57, 235, 50, 212, 242, 183, 191, 218, 76, 175, 62, 127, 232, 241, 59, 180, 101, 255, 0, 127, 0, 0, 127, 27, 51, 236, 57, 137, 143, 36, 191, 249, 121, 113, 63, 127, 232, 241, 59, 180, 101, 255, 0, 127, 0, 0, 127, 27, 51, 236, 57, 223, 239, 41, 191, 221, 249, 106, 63, 24, 193, 144, 190, 180, 101, 255, 0, 127, 0, 0, 127, 27, 51, 236, 57, 212, 242, 183, 191, 218, 76, 175, 62, 10, 51, 148, 190, 180, 101, 255, 0, 127, 0, 0, 127, 27, 51, 236, 57, 22, 9, 35, 191, 183, 250, 94, 63, 143, 96, 137, 190, 131, 19, 249, 0, 254, 32, 122, 127, 210, 57, 158, 51, 137, 143, 36, 191, 249, 121, 113, 63, 127, 232, 241, 59, 131, 19, 249, 0, 254, 32, 122, 127, 255, 57, 158, 51, 23, 228, 32, 191, 14, 236, 106, 63, 186, 83, 145, 190, 131, 19, 249, 0, 254, 32, 122, 127, 255, 57, 235, 50, 181, 72, 223, 190, 60, 0, 88, 62, 10, 51, 148, 190, 244, 158, 177, 0, 127, 0, 0, 127, 27, 51, 236, 57, 212, 242, 183, 191, 218, 76, 175, 62, 10, 51, 148, 190, 244, 158, 177, 0, 127, 0, 0, 127, 27, 51, 236, 57, 118, 54, 164, 191, 39, 108, 195, 62, 68, 230, 185, 190, 244, 158, 177, 0, 127, 0, 0, 127, 27, 51, 236, 57, 70, 239, 10, 191, 41, 168, 145, 62, 68, 230, 185, 190, 244, 158, 177, 0, 127, 0, 0, 127, 27, 51, 236, 57, 181, 72, 223, 190, 60, 0, 88, 62, 10, 51, 148, 190, 0, 0, 129, 0, 127, 0, 0, 127, 27, 51, 236, 57, 111, 197, 124, 190, 174, 86, 255, 190, 7, 51, 148, 190, 0, 0, 129, 0, 127, 0, 0, 127, 27, 51, 236, 57, 98, 216, 145, 191, 239, 245, 175, 190, 7, 51, 148, 190, 0, 0, 129, 0, 127, 0, 0, 127, 27, 51, 236, 57, 181, 72, 223, 190, 60, 0, 88, 62, 10, 51, 148, 190, 0, 0, 130, 0, 127, 0, 0, 127, 27, 51, 236, 57, 23, 228, 32, 191, 14, 236, 106, 63, 186, 83, 145, 190, 0, 0, 130, 0, 127, 0, 0, 127, 27, 51, 236, 57, 239, 27, 187, 62, 151, 162, 76, 63, 10, 51, 148, 190, 0, 0, 130, 0, 127, 0, 0, 127, 27, 51, 236, 57, 239, 27, 187, 62, 151, 162, 76, 63, 10, 51, 148, 190, 0, 0, 129, 0, 127, 0, 0, 127, 27, 51, 236, 57, 217, 159, 98, 63, 62, 253, 105, 62, 10, 51, 148, 190, 0, 0, 129, 0, 127, 0, 0, 127, 27, 51, 236, 57, 36, 12, 93, 63, 97, 143, 188, 190, 7, 51, 148, 190, 0, 0, 129, 0, 127, 0, 0, 127, 27, 51, 236, 57, 212, 242, 183, 191, 218, 76, 175, 62, 10, 51, 148, 190, 0, 0, 129, 0, 127, 0, 0, 127, 27, 51, 236, 57, 22, 9, 35, 191, 183, 250, 94, 63, 143, 96, 137, 190, 96, 31, 180, 0, 36, 135, 253, 127, 210, 57, 158, 51, 181, 72, 223, 190, 60, 0, 88, 62, 10, 51, 148, 190, 96, 31, 180, 0, 36, 135, 253, 127, 255, 57, 158, 51, 223, 239, 41, 191, 221, 249, 106, 63, 24, 193, 144, 190, 96, 31, 180, 0, 36, 135, 253, 127, 255, 57, 235, 50, 23, 228, 32, 191, 14, 236, 106, 63, 186, 83, 145, 190, 181, 237, 156, 0, 33, 134, 0, 127, 210, 57, 158, 51, 181, 72, 223, 190, 60, 0, 88, 62, 10, 51, 148, 190, 181, 237, 156, 0, 33, 134, 0, 127, 255, 57, 158, 51, 22, 9, 35, 191, 183, 250, 94, 63, 143, 96, 137, 190, 181, 237, 156, 0, 33, 134, 0, 127, 255, 57, 235, 50, 70, 239, 10, 191, 41, 168, 145, 62, 68, 230, 185, 190, 0, 1, 130, 0, 127, 0, 0, 127, 27, 51, 236, 57, 118, 54, 164, 191, 39, 108, 195, 62, 68, 230, 185, 190, 0, 1, 130, 0, 127, 0, 0, 127, 27, 51, 236, 57, 165, 10, 54, 191, 52, 167, 78, 63, 26, 90, 183, 190, 0, 1, 130, 0, 127, 0, 0, 127, 27, 51, 236, 57, 223, 239, 41, 191, 221, 249, 106, 63, 24, 193, 144, 190, 82, 27, 164, 0, 127, 0, 0, 127, 27, 51, 236, 57, 181, 72, 223, 190, 60, 0, 88, 62, 10, 51, 148, 190, 82, 27, 164, 0, 127, 0, 0, 127, 27, 51, 236, 57, 70, 239, 10, 191, 41, 168, 145, 62, 68, 230, 185, 190, 82, 27, 164, 0, 127, 0, 0, 127, 27, 51, 236, 57, 165, 10, 54, 191, 52, 167, 78, 63, 26, 90, 183, 190, 82, 27, 164, 0, 127, 0, 0, 127, 27, 51, 236, 57, 212, 242, 183, 191, 218, 76, 175, 62, 10, 51, 148, 190, 198, 79, 177, 0, 127, 0, 0, 127, 27, 51, 236, 57, 223, 239, 41, 191, 221, 249, 106, 63, 24, 193, 144, 190, 198, 79, 177, 0, 127, 0, 0, 127, 27, 51, 236, 57, 165, 10, 54, 191, 52, 167, 78, 63, 26, 90, 183, 190, 198, 79, 177, 0, 127, 0, 0, 127, 27, 51, 236, 57, 118, 54, 164, 191, 39, 108, 195, 62, 68, 230, 185, 190, 198, 79, 177, 0, 127, 0, 0, 127, 27, 51, 236, 57 ),
"array_index_data": PoolByteArray( 0, 0, 2, 0, 1, 0, 0, 0, 1, 0, 3, 0, 0, 0, 5, 0, 4, 0, 0, 0, 4, 0, 6, 0, 0, 0, 6, 0, 2, 0, 7, 0, 9, 0, 8, 0, 7, 0, 10, 0, 9, 0, 11, 0, 13, 0, 12, 0, 11, 0, 14, 0, 13, 0, 15, 0, 17, 0, 16, 0, 15, 0, 18, 0, 17, 0, 19, 0, 21, 0, 20, 0, 19, 0, 22, 0, 21, 0, 23, 0, 25, 0, 24, 0, 23, 0, 26, 0, 25, 0, 27, 0, 29, 0, 28, 0, 27, 0, 30, 0, 29, 0, 31, 0, 33, 0, 32, 0, 31, 0, 34, 0, 33, 0, 35, 0, 37, 0, 36, 0, 38, 0, 40, 0, 39, 0, 41, 0, 43, 0, 42, 0, 41, 0, 44, 0, 43, 0, 45, 0, 47, 0, 46, 0, 48, 0, 50, 0, 49, 0, 51, 0, 53, 0, 52, 0, 54, 0, 56, 0, 55, 0, 54, 0, 57, 0, 56, 0, 58, 0, 60, 0, 59, 0, 58, 0, 61, 0, 60, 0, 62, 0, 64, 0, 63, 0, 62, 0, 65, 0, 64, 0, 66, 0, 68, 0, 67, 0, 66, 0, 69, 0, 68, 0, 70, 0, 72, 0, 71, 0, 70, 0, 73, 0, 72, 0, 74, 0, 76, 0, 75, 0, 77, 0, 79, 0, 78, 0, 77, 0, 80, 0, 79, 0, 81, 0, 83, 0, 82, 0, 84, 0, 86, 0, 85, 0, 84, 0, 87, 0, 86, 0, 88, 0, 90, 0, 89, 0, 88, 0, 91, 0, 90, 0, 92, 0, 94, 0, 93, 0, 95, 0, 97, 0, 96, 0, 98, 0, 100, 0, 99, 0, 101, 0, 103, 0, 102, 0, 104, 0, 106, 0, 105, 0, 107, 0, 109, 0, 108, 0, 110, 0, 112, 0, 111, 0, 113, 0, 115, 0, 114, 0, 116, 0, 118, 0, 117, 0, 116, 0, 119, 0, 118, 0, 120, 0, 122, 0, 121, 0, 120, 0, 123, 0, 122, 0, 124, 0, 126, 0, 125, 0, 124, 0, 127, 0, 126, 0, 128, 0, 130, 0, 129, 0, 128, 0, 131, 0, 130, 0, 132, 0, 134, 0, 133, 0, 132, 0, 135, 0, 134, 0, 136, 0, 138, 0, 137, 0, 136, 0, 139, 0, 138, 0, 140, 0, 142, 0, 141, 0, 140, 0, 143, 0, 142, 0, 144, 0, 146, 0, 145, 0, 147, 0, 149, 0, 148, 0, 150, 0, 152, 0, 151, 0, 153, 0, 155, 0, 154, 0, 156, 0, 158, 0, 157, 0, 159, 0, 161, 0, 160, 0, 159, 0, 162, 0, 161, 0, 163, 0, 165, 0, 164, 0, 163, 0, 166, 0, 165, 0, 167, 0, 169, 0, 168, 0, 167, 0, 170, 0, 169, 0, 171, 0, 173, 0, 172, 0, 171, 0, 174, 0, 173, 0, 175, 0, 177, 0, 176, 0, 175, 0, 178, 0, 177, 0, 175, 0, 179, 0, 178, 0, 180, 0, 182, 0, 181, 0, 180, 0, 183, 0, 182, 0, 184, 0, 172, 0, 185, 0, 184, 0, 171, 0, 172, 0, 186, 0, 188, 0, 187, 0, 186, 0, 189, 0, 188, 0, 186, 0, 190, 0, 189, 0, 191, 0, 193, 0, 192, 0, 191, 0, 194, 0, 193, 0, 195, 0, 197, 0, 196, 0, 195, 0, 198, 0, 197, 0, 199, 0, 201, 0, 200, 0, 199, 0, 202, 0, 201, 0, 199, 0, 203, 0, 202, 0, 204, 0, 206, 0, 205, 0, 204, 0, 207, 0, 206, 0, 208, 0, 210, 0, 209, 0, 208, 0, 211, 0, 210, 0, 212, 0, 214, 0, 213, 0, 212, 0, 215, 0, 214, 0, 216, 0, 218, 0, 217, 0, 216, 0, 219, 0, 218, 0, 220, 0, 209, 0, 221, 0, 220, 0, 208, 0, 209, 0, 222, 0, 224, 0, 223, 0, 222, 0, 225, 0, 224, 0, 226, 0, 196, 0, 227, 0, 226, 0, 195, 0, 196, 0, 228, 0, 230, 0, 229, 0, 228, 0, 231, 0, 230, 0, 228, 0, 232, 0, 231, 0, 228, 0, 233, 0, 232, 0, 228, 0, 234, 0, 233, 0, 228, 0, 235, 0, 234, 0, 228, 0, 236, 0, 235, 0, 237, 0, 239, 0, 238, 0, 240, 0, 242, 0, 241, 0, 240, 0, 243, 0, 242, 0, 244, 0, 246, 0, 245, 0, 247, 0, 249, 0, 248, 0, 247, 0, 250, 0, 249, 0, 251, 0, 253, 0, 252, 0, 254, 0, 0, 1, 255, 0, 254, 0, 1, 1, 0, 1, 2, 1, 4, 1, 3, 1, 5, 1, 7, 1, 6, 1, 5, 1, 8, 1, 7, 1, 9, 1, 11, 1, 10, 1, 12, 1, 14, 1, 13, 1, 12, 1, 15, 1, 14, 1, 16, 1, 18, 1, 17, 1, 19, 1, 21, 1, 20, 1, 19, 1, 22, 1, 21, 1, 23, 1, 25, 1, 24, 1, 23, 1, 26, 1, 25, 1, 27, 1, 29, 1, 28, 1, 27, 1, 30, 1, 29, 1, 31, 1, 33, 1, 32, 1, 31, 1, 34, 1, 33, 1, 35, 1, 37, 1, 36, 1, 35, 1, 38, 1, 37, 1, 39, 1, 41, 1, 40, 1, 39, 1, 42, 1, 41, 1, 43, 1, 45, 1, 44, 1, 43, 1, 46, 1, 45, 1, 47, 1, 49, 1, 48, 1, 47, 1, 50, 1, 49, 1, 51, 1, 53, 1, 52, 1, 54, 1, 56, 1, 55, 1, 54, 1, 57, 1, 56, 1, 58, 1, 60, 1, 59, 1, 58, 1, 61, 1, 60, 1, 62, 1, 64, 1, 63, 1, 62, 1, 65, 1, 64, 1, 66, 1, 68, 1, 67, 1, 66, 1, 69, 1, 68, 1, 70, 1, 72, 1, 71, 1, 70, 1, 73, 1, 72, 1, 74, 1, 76, 1, 75, 1, 74, 1, 77, 1, 76, 1, 78, 1, 80, 1, 79, 1, 78, 1, 81, 1, 80, 1, 82, 1, 84, 1, 83, 1, 82, 1, 85, 1, 84, 1, 86, 1, 88, 1, 87, 1, 86, 1, 89, 1, 88, 1, 90, 1, 92, 1, 91, 1, 90, 1, 93, 1, 92, 1, 90, 1, 94, 1, 93, 1, 95, 1, 97, 1, 96, 1, 95, 1, 98, 1, 97, 1, 99, 1, 101, 1, 100, 1, 99, 1, 102, 1, 101, 1, 103, 1, 105, 1, 104, 1, 103, 1, 106, 1, 105, 1, 107, 1, 109, 1, 108, 1, 107, 1, 110, 1, 109, 1, 111, 1, 113, 1, 112, 1, 111, 1, 114, 1, 113, 1, 115, 1, 117, 1, 116, 1, 115, 1, 118, 1, 117, 1, 119, 1, 121, 1, 120, 1, 119, 1, 122, 1, 121, 1, 123, 1, 125, 1, 124, 1, 123, 1, 126, 1, 125, 1, 127, 1, 129, 1, 128, 1, 127, 1, 130, 1, 129, 1, 131, 1, 133, 1, 132, 1, 134, 1, 136, 1, 135, 1, 134, 1, 137, 1, 136, 1, 138, 1, 140, 1, 139, 1, 141, 1, 143, 1, 142, 1, 141, 1, 144, 1, 143, 1, 145, 1, 147, 1, 146, 1, 145, 1, 148, 1, 147, 1, 0, 0, 149, 1, 5, 0, 0, 0, 150, 1, 149, 1, 151, 1, 153, 1, 152, 1, 151, 1, 154, 1, 153, 1, 155, 1, 157, 1, 156, 1, 158, 1, 160, 1, 159, 1, 158, 1, 161, 1, 160, 1, 162, 1, 164, 1, 163, 1, 0, 0, 149, 1, 150, 1, 0, 0, 3, 0, 149, 1, 165, 1, 167, 1, 166, 1, 165, 1, 168, 1, 167, 1, 169, 1, 171, 1, 170, 1, 172, 1, 174, 1, 173, 1, 169, 1, 176, 1, 175, 1, 169, 1, 177, 1, 176, 1, 169, 1, 170, 1, 177, 1, 169, 1, 178, 1, 171, 1, 179, 1, 181, 1, 180, 1, 182, 1, 184, 1, 183, 1, 185, 1, 187, 1, 186, 1, 188, 1, 190, 1, 189, 1, 188, 1, 191, 1, 190, 1, 192, 1, 194, 1, 193, 1, 192, 1, 195, 1, 194, 1 ),
"blend_shape_data": [  ],
"format": 97559,
"index_count": 666,
"material": ExtResource( 1 ),
"name": "color1",
"primitive": 4,
"skeleton_aabb": [  ],
"vertex_count": 452
}

[node name="Rock_001" type="MeshInstance"]
transform = Transform( 0.468701, 0.883357, -3.86128e-08, 0, -4.37114e-08, -1, -0.883357, 0.468701, -2.04876e-08, 0, 0, 0 )
mesh = SubResource( 1 )
material/0 = null
script = ExtResource( 2 )
